D:\SoftDev_65160078\ReportProject1\src\main\java\com\newgen\reportproject1\Dao.java
D:\SoftDev_65160078\ReportProject1\src\main\java\com\newgen\reportproject1\DatabaseHelper.java
D:\SoftDev_65160078\ReportProject1\src\main\java\com\newgen\reportproject1\Report1.java
D:\SoftDev_65160078\ReportProject1\src\main\java\com\newgen\reportproject1\Artist.java
D:\SoftDev_65160078\ReportProject1\src\main\java\com\newgen\reportproject1\ArtistService.java
D:\SoftDev_65160078\ReportProject1\src\main\java\com\newgen\reportproject1\ArtistDao.java
D:\SoftDev_65160078\ReportProject1\src\main\java\com\newgen\reportproject1\ArtistReport.java
D:\SoftDev_65160078\ReportProject1\src\main\java\com\newgen\reportproject1\DateLabelFormatter.java
D:\SoftDev_65160078\ReportProject1\src\main\java\com\newgen\reportproject1\ReportProject1.java
